{
  "label": {
    "de": "Shopware Product Stream Import/Export",
    "en": "Shopware Product Stream Import/Export"
  },
  "copyright": "(c) by Victor Efimov",
  "license": "MIT",
  "link": "http://localhost",
  "author": "Victor Efimov",

  "currentVersion": "0.1.0",

  "compatibility": {
    "minimumVersion": "5.5.2",
    "maximumVersion": null,
    "blacklist": [
    ]
  }
}
